------------------------------------------------------------------------
r1109768 | scripty | 2010-04-01 15:09:40 +1300 (Thu, 01 Apr 2010) | 1 line

SVN_SILENT made messages (.desktop file)
------------------------------------------------------------------------
r1110146 | scripty | 2010-04-02 15:01:47 +1300 (Fri, 02 Apr 2010) | 1 line

SVN_SILENT made messages (.desktop file)
------------------------------------------------------------------------
r1110425 | scripty | 2010-04-03 14:51:04 +1300 (Sat, 03 Apr 2010) | 1 line

SVN_SILENT made messages (.desktop file)
------------------------------------------------------------------------
r1111186 | scripty | 2010-04-05 13:48:35 +1200 (Mon, 05 Apr 2010) | 1 line

SVN_SILENT made messages (.desktop file)
------------------------------------------------------------------------
r1112090 | annma | 2010-04-07 22:37:56 +1200 (Wed, 07 Apr 2010) | 3 lines

fixe in branch
BUG=232696

------------------------------------------------------------------------
r1112519 | shaforo | 2010-04-08 23:50:42 +1200 (Thu, 08 Apr 2010) | 2 lines

backport fixes

------------------------------------------------------------------------
