------------------------------------------------------------------------
r1024457 | scripty | 2009-09-16 16:16:56 +0000 (Wed, 16 Sep 2009) | 1 line

SVN_SILENT made messages (.desktop file)
------------------------------------------------------------------------
