------------------------------------------------------------------------
r947239 | scripty | 2009-03-31 07:03:26 +0000 (Tue, 31 Mar 2009) | 1 line

SVN_SILENT made messages (.desktop file)
------------------------------------------------------------------------
