------------------------------------------------------------------------
r965132 | scripty | 2009-05-08 07:32:24 +0000 (Fri, 08 May 2009) | 1 line

SVN_SILENT made messages (.desktop file)
------------------------------------------------------------------------
r967315 | scripty | 2009-05-13 08:07:21 +0000 (Wed, 13 May 2009) | 1 line

SVN_SILENT made messages (.desktop file)
------------------------------------------------------------------------
